<?xml version="1.0" encoding="UTF-8" standalone="no"?>
<!-- Created with Inkscape (http://www.inkscape.org/) -->
<svg
   xmlns:dc="http://purl.org/dc/elements/1.1/"
   xmlns:cc="http://web.resource.org/cc/"
   xmlns:rdf="http://www.w3.org/1999/02/22-rdf-syntax-ns#"
   xmlns:svg="http://www.w3.org/2000/svg"
   xmlns="http://www.w3.org/2000/svg"
   xmlns:sodipodi="http://sodipodi.sourceforge.net/DTD/sodipodi-0.dtd"
   xmlns:inkscape="http://www.inkscape.org/namespaces/inkscape"
   id="svg1349"
   sodipodi:version="0.32"
   inkscape:version="0.45.1"
   width="1000"
   height="1092.4"
   sodipodi:docbase="Z:\Documents\texte\wikipedia\wappen"
   sodipodi:docname="Wappen_Weinsberg_ink.svg"
   version="1.0"
   inkscape:r_cx="true"
   inkscape:r_cy="true"
   inkscape:output_extension="org.inkscape.output.svg.inkscape">
  <metadata
     id="metadata1354">
    <rdf:RDF>
      <cc:Work
         rdf:about="">
        <dc:format>image/svg+xml</dc:format>
        <dc:type
           rdf:resource="http://purl.org/dc/dcmitype/StillImage" />
      </cc:Work>
    </rdf:RDF>
  </metadata>
  <defs
     id="defs1352" />
  <sodipodi:namedview
     inkscape:window-height="915"
     inkscape:window-width="1263"
     inkscape:pageshadow="2"
     inkscape:pageopacity="0.0"
     borderopacity="1.0"
     bordercolor="#666666"
     pagecolor="#ffffff"
     id="base"
     inkscape:zoom="0.35134243"
     inkscape:cx="863.31765"
     inkscape:cy="753.96848"
     inkscape:window-x="176"
     inkscape:window-y="86"
     inkscape:current-layer="svg1349"
     units="px"
     grid_units=""
     width="1000px"
     height="1092.4px" />
  <path
     style="opacity:1;fill:#ffffff;fill-opacity:1;fill-rule:evenodd;stroke:#000000;stroke-width:1px;stroke-linecap:butt;stroke-linejoin:miter;stroke-opacity:1"
     d="M 493.99875,8.1163822 L 7.9592757,8.1163722 C 7.9592757,8.1163722 7.3763857,308.6393 16.009616,624.97395 C 22.739436,870.55845 212.23674,1083.8435 499.03022,1083.8435 C 502.0491,508.24395 502.0491,78.556882 493.99875,8.1163822 z "
     id="path1507"
     inkscape:r_cx="true"
     inkscape:r_cy="true"
     sodipodi:nodetypes="ccscc" />
  <path
     style="opacity:1;fill:#000000;fill-opacity:1;fill-rule:evenodd;stroke:#000000;stroke-width:1px;stroke-linecap:butt;stroke-linejoin:miter;stroke-opacity:1"
     d="M 506.16534,10.6321 L 992.20481,10.632092 C 992.20481,10.632092 992.7877,311.15502 984.15447,627.48964 C 977.42465,873.07413 787.92735,1086.3592 501.13387,1086.3592 C 498.11499,510.75967 498.11499,81.072604 506.16534,10.6321 z "
     id="path17490"
     inkscape:r_cx="true"
     inkscape:r_cy="true"
     sodipodi:nodetypes="ccscc" />
  <path
     style="fill:#fff200;fill-opacity:1"
     d="M 843.4375,31.46875 C 838.81875,31.51119 838.32428,31.697523 836.125,31.8125 C 824.97301,32.395516 832.40204,97.668312 828.15625,98.6875 C 820.64691,98.561384 829.19375,40.645736 825.625,40.5 C 799.57007,39.435995 795.62465,43.981511 822.46875,99.1875 C 802.79532,99.1875 751.87784,92.4375 728.21875,92.4375 C 681.08205,92.437502 645.37694,106.43546 628.10755,136.77971 C 621.68794,92.896637 619.56761,61.540802 570.01084,61.540802 C 545.28459,61.540802 504.84679,92.967299 528.10306,124.76686 C 540.25051,141.37672 592.00621,148.34702 587.69009,106.53137 C 586.20862,92.178446 568.82409,68.401024 543.75743,89.362854 C 543.75743,93.629972 538.51835,103.06873 541.54811,103.16828 C 565.25752,84.758746 579.47467,97.889193 579.65649,107.40873 C 580.01238,126.39882 565.41596,129.4263 549.32936,126.35365 C 517.03082,120.1844 533.70699,73.656331 562.36061,72.608254 C 600.34795,71.218773 606.5,135.73105 606.5,193.40625 C 606.49998,254.75447 645.97795,281.59176 662.34375,293.09375 C 621.42926,295.70125 587.5,323.50649 587.5,335.4375 C 605.34837,330.10084 611,344.9375 611,344.9375 C 624.99328,312.91744 668.36987,308.81722 684.21875,312.375 C 684.21877,298.38493 684.65625,289.39555 684.65625,277.03125 C 664.96865,263.12344 635.39733,225.51754 656.3125,199.375 C 666.11726,187.11987 709.11397,174.97968 742.97504,203.03082 C 745.17182,197.63878 750.3177,188.27243 751.625,186.15625 C 703.83489,161.98182 640.4474,160.35684 629.0625,212.65625 C 629.06252,212.65625 628.67495,196.18284 632.0625,185.03125 C 642.02293,152.24216 652.70253,128.22993 678.53125,117.53125 C 709.94269,104.52016 738.83906,113.09459 766.78125,143.6875 C 773.15068,150.66141 788.13755,170.74942 793.57948,179.91132 C 797.65933,177.69879 802.78373,175.04168 806.34151,175.45696 C 792.46614,150.67157 764.83462,120.97569 739.75,106.25 C 768.88174,105.53845 787.13981,107.65625 825.1875,107.65625 C 826.55787,119.3244 815.25718,122.64179 817.71875,137.65625 C 823.44428,172.57959 850.51416,175.6001 857.09375,178.125 C 852.64423,170.33226 851.96875,169.55153 851.96875,166.0625 C 851.96875,165.95901 851.9773,165.85764 852,165.78125 C 852.04463,165.65077 852.14245,165.54621 852.25,165.5 C 852.26389,165.49488 852.29773,165.47257 852.3125,165.46875 C 852.32771,165.46558 852.35894,165.47063 852.375,165.46875 C 854.6215,165.30906 865.67193,175.84375 879.53125,175.84375 C 892.45108,175.84375 913.18718,166.76475 929.59375,149.46875 C 921.89332,153.74329 914.41349,154.58079 908.1875,154.28125 C 885.79419,153.20391 833.8125,114.8125 833.8125,114.8125 C 855.51498,115.52406 886.82977,149.88374 909.79811,148.85094 C 920.43302,148.37273 930.26985,148.99186 938.71875,133.625 C 919.41693,134.26817 909.57657,133.41532 888.28125,128.40625 C 928.53559,115.92583 932.99892,95.45402 937.3125,90.6875 C 937.31535,90.68484 937.34075,90.659009 937.34375,90.65625 C 937.34665,90.653454 937.37137,90.628354 937.375,90.625 C 937.37502,90.622198 937.37507,90.597128 937.375,90.59375 C 937.37485,90.591687 937.37486,90.569289 937.375,90.5625 C 937.36934,90.556877 937.34954,90.536857 937.34375,90.53125 C 937.33601,90.523122 937.31851,90.505552 937.3125,90.5 C 937.29273,90.484061 937.24946,90.454272 937.21875,90.4375 C 935.57135,89.710781 922.23972,90.244407 920.90625,88.5 C 920.88653,88.471909 920.85723,88.435527 920.84375,88.40625 C 920.84167,88.40096 920.84566,88.381027 920.84375,88.375 C 920.84203,88.368436 920.81403,88.350652 920.8125,88.34375 C 920.80985,88.329667 920.81429,88.294695 920.8125,88.28125 C 920.81184,88.274986 920.81292,88.255606 920.8125,88.25 C 920.8124,88.243195 920.81288,88.226615 920.8125,88.21875 C 920.81211,88.206364 920.81153,88.167642 920.8125,88.15625 C 920.81374,88.148623 920.81093,88.132719 920.8125,88.125 C 920.82759,88.062625 920.87575,87.969501 920.90625,87.90625 C 920.92615,87.86697 920.94586,87.818201 920.96875,87.78125 C 922.40439,85.584987 932.51341,83.953332 933.03125,80.5 C 935.9422,61.089383 931.42261,51.455853 930.03125,38.71875 C 917.82891,36.114325 908.90208,35.278565 902.125,35.4375 C 885.45706,35.828395 881.73171,42.169396 873.9375,42.625 C 858.39964,43.533254 849.33915,54.153777 841.15625,65 C 838.31001,52.202041 851.41853,33.637593 845.6875,31.46875 C 844.84252,31.46875 844.09732,31.462687 843.4375,31.46875 z "
     id="path1421"
     sodipodi:nodetypes="cscscscsssccsssscccccsccssssccccscsssssscscsccsssssssssssssssssssscssccc" />
  <path
     style="fill:#000000"
     d="M 494.67089,1050.625 C 494.67089,1036.9846 486.08463,1015.1946 474.96499,1000.6161 C 464.12673,986.40662 459.70107,955.29585 459.70107,948.06695 C 452.65702,946.30266 448.57506,946.08306 430.77548,949.04948 C 392.29963,955.46173 372.95061,940.43874 379.83159,876.07601 C 403.39868,912.45033 433.9231,903.34623 451.78139,889.66087 C 462.7532,883.20063 473.89535,863.15879 467.33969,863.15879 C 412.57561,863.15879 410.26621,807.38233 470.92775,807.38233 C 470.92775,793.01587 471.0238,783.78965 471.0238,768.58858 C 471.0238,724.68659 459.61092,721.73527 434.80355,759.22197 C 423.22516,776.71767 407.83071,809.362 406.04301,809.362 C 404.25451,809.362 409.57921,778.61811 412.42632,763.44454 C 418.52176,730.95237 388.72486,694.02026 354.09921,703.95069 L 330.76349,710.64322 L 366.03233,660.19083 C 385.43003,632.44191 406.4586,609.73835 412.7629,609.73835 C 419.06643,609.73835 426.28195,604.37661 428.79642,597.82345 C 434.48826,582.99027 400.06521,496.07138 391.96608,504.82688 C 388.71933,508.33698 380.03692,532.33971 372.67163,558.16635 C 356.59478,614.53941 328.57849,671.66438 307.79902,690.4389 C 286.04368,710.09578 256.58279,729.70932 219.55324,693.21056 C 272.85938,667.86286 272.78718,628.48175 288.25548,587.73828 C 331.34206,474.24726 326.53776,421.33683 281.39,512.12815 C 251.24074,572.75644 203.05666,648.83258 185.89676,662.89747 C 162.23943,682.28769 111.45508,685.01186 90.755296,648.65863 C 134.73669,644.25378 141.60419,611.80793 154.90015,595.02048 C 179.7958,563.58751 226.6533,471.54975 226.66434,454.06171 C 226.67536,435.95703 211.45373,443.93256 198.61573,468.75726 C 179.3142,506.08324 123.57658,563.90973 94.460571,575.6123 C 58.216926,590.17967 30.305872,588.43412 40.519112,534.14161 C 83.348079,546.40704 138.28335,444.3545 164.19505,394.944 C 184.68997,355.8634 174.52171,357.61265 132.53948,400.38984 C 95.654739,437.97279 73.651899,456.68842 54.384249,449.295 C 38.185207,443.07868 26.387267,417.49448 41.115902,389.03222 C 76.235886,394.72467 89.929791,352.99344 109.12886,316.12038 C 125.91434,283.88349 117.12472,276.30609 88.265036,298.13441 C 57.158868,321.6623 27.761951,304.84105 36.576448,255.03209 C 79.62574,256.4552 132.08229,166.79519 132.08229,136.26877 C 132.08229,130.72714 125.31449,128.84548 115.043,131.53147 C 72.60594,142.62905 73.569192,115.89809 74.633054,91.674432 C 119.84323,90.170772 129.55047,64.250635 148.07009,50.835251 C 226.1906,-5.7552183 297.13103,42.418859 249.85896,119.95788 C 238.04567,139.33478 235.13235,153.12686 239.0357,171.19325 C 247.41385,209.96729 279.27752,267.63116 302.35467,285.78392 C 329.33915,307.00963 371.3876,307.37355 392.20018,286.56152 C 410.97755,267.78361 406.59423,242.59994 389.10958,249.30964 C 378.89639,253.22859 385.99282,251.92106 396.76722,235.4764 C 413.31152,210.22716 408.48278,190.00646 384.27605,183.16763 L 364.61193,177.61199 L 382.34725,172.04972 C 392.10166,168.99043 400.08254,162.90074 400.08254,158.51698 C 400.08254,147.22636 389.58089,125.04815 376.20924,108.93636 C 369.41622,100.75079 365.71235,80.189678 347.20457,81.785915 C 321.75243,83.981251 341.90108,88.194467 339.70111,69.156198 C 337.5705,50.717151 339.30882,40.025594 352.6786,35.468688 C 362.84692,32.002952 387.46556,27.393863 401.6275,30.724194 C 439.47861,39.625286 463.66608,99.620262 478.01993,118.03321 C 484.48016,126.32032 426.58163,88.28421 488.05365,160.44372 C 490.41366,163.21404 494.67089,126.74664 494.67089,85.561307 L 494.67089,10.678875 C 494.67089,10.678875 494.67089,1073.8763 494.67089,1050.625 z "
     id="path4600"
     inkscape:r_cx="true"
     inkscape:r_cy="true"
     sodipodi:nodetypes="cscsccscscsccccssssccccscsscsccssccccssccscccsccccssssssssccc" />
  <path
     style="fill:#ffffff;fill-opacity:1"
     d="M 383.82735,67.256508 C 384.8297,75.777653 388.07978,84.512789 393.3586,91.256508 C 398.53701,95.386495 405.05788,89.754424 406.45235,84.756508 C 399.66977,78.737415 393.82298,67.932859 383.82735,67.256508 z "
     id="path4420"
     inkscape:r_cx="true"
     inkscape:r_cy="true" />
  <path
     style="fill:#ed1c24;fill-opacity:1;stroke:#000000;stroke-width:7;stroke-miterlimit:4;stroke-dasharray:none;stroke-opacity:1"
     d="M 381.38494,777.71642 C 350.09104,772.76651 339.40809,783.97246 329.39669,794.70113 L 276.51716,849.87757 L 315.96667,859.59908 C 346.08517,865.24916 351.97754,870.60111 333.89104,884.73566 C 304.34284,907.82745 326.10697,885.9013 322.61517,880.25124 C 319.80587,875.70547 304.60871,868.51889 290.05551,868.51889 C 268.62101,868.51889 253.42289,878.93956 233.28429,904.36648 C 219.61069,921.63122 210.92494,944.86718 214.86744,948.23675 C 221.03724,953.50989 239.25374,957.12002 207.53684,956.25941 C 190.69764,955.80249 196.09311,939.04456 215.07461,908.33251 C 227.41131,888.37122 232.08179,873.84757 223.95429,870.7293 C 210.34459,865.50644 139.99094,879.93982 151.02014,897.87761 C 153.46674,901.85677 132.18934,894.04945 132.18934,881.18149 C 132.18934,865.74783 165.12929,857.34388 207.10049,856.93557 L 238.10586,857.60632 L 213.48986,827.00023 C 197.71656,813.46699 160.35664,801.51284 157.58204,814.08687 C 157.19304,815.84993 155.83644,808.28147 155.83644,797.8744 C 155.83644,771.59067 187.27854,780.83347 223.25054,815.74288 L 252.16237,849.13288 C 252.16237,849.13288 387.09454,706.46501 397.60729,710.14912 C 408.90589,714.10862 415.08161,724.06956 409.57803,729.98463 C 388.97029,752.13315 380.68379,747.24799 381.38494,777.71642 z "
     id="path7227"
     inkscape:r_cx="true"
     inkscape:r_cy="true"
     sodipodi:nodetypes="ccccssscssccsscccssccssc" />
  <path
     style="fill:#ed1c24;fill-opacity:1;stroke:#000000;stroke-width:7;stroke-miterlimit:4;stroke-dasharray:none;stroke-opacity:1"
     d="M 352.1836,180.26813 C 359.74855,170.70835 395.62645,173.89407 400.68662,165.20119 C 405.77987,156.45148 397.73547,134.65206 381.23117,111.89509 C 371.33779,98.253595 352.81909,89.498017 339.73729,90.420139 C 328.89612,91.184321 325.48151,96.993726 314.31069,106.65514 C 307.84608,96.012766 303.47285,81.401716 308.76105,73.018557 C 314.01571,64.688411 335.95952,52.762575 348.06113,57.32112 C 402.50038,99.539583 427.12248,150.46122 415.19273,174.57933 C 406.16033,192.83992 358.55518,180.26813 352.1836,180.26813 z "
     id="path8290"
     sodipodi:nodetypes="cssscscsc"
     inkscape:r_cx="true"
     inkscape:r_cy="true" />
  <path
     style="fill:#ed1c24;fill-opacity:1;stroke:#000000;stroke-width:7;stroke-miterlimit:4;stroke-dasharray:none;stroke-opacity:1"
     d="M 400.53473,156.42689 C 356.87737,158.33556 328.98885,163.33516 307.9687,171.17369 C 296.71253,175.37117 288.41327,186.04736 272.68415,186.44938 C 253.10424,186.94981 274.24688,145.54385 283.02629,123.12031 C 285.7414,142.51436 292.98288,153.6285 305.47737,153.548 C 327.37504,153.40368 345.86538,142.83496 394.84697,140.57645 C 398.24445,150.47243 399.0897,151.33085 400.53473,156.42689 z "
     id="path8294"
     sodipodi:nodetypes="csscscc"
     inkscape:r_cx="true"
     inkscape:r_cy="true" />
  <path
     style="fill:#fff200;fill-opacity:1"
     d="M 844.33656,943.93832 C 703.19621,812.85937 533.57025,912.04496 509.09912,1078.2709 C 625.1126,1083.9356 788.20223,1005.3135 844.33656,943.93832 z "
     id="path19422"
     inkscape:r_cx="true"
     inkscape:r_cy="true"
     sodipodi:nodetypes="ccc" />
  <path
     style="fill:#0072bc|g;fill-opacity:1"
     d="M 498.28125,9.96875 L 504.625,137 C 503.90707,178.3924 503.44704,206.29621 503.6875,224.59375 L 503.34375,223.21875 L 503.09375,321.90625 C 503.09375,321.90625 503.99224,666.27944 504.71875,721.71875 C 504.80605,728.38047 501.90625,737.888 501.90625,747.25 L 503.6875,836.84375 C 503.6875,836.84375 501.66881,875.28674 499.75,924.65625 L 506.3125,1039.5938 C 540.46722,946.37988 578.4822,925.39504 616.90625,893.375 L 607.25,854.96875 C 601.34433,831.51505 599.63609,797.47842 602.84375,767.53125 C 608.436,715.30539 597.57019,691.70964 568.0625,691.96875 C 558.91164,692.04913 545.41387,698.52746 543.9375,717.15625 C 571.94899,686.44849 625.14315,732.84723 579.84375,760 C 571.03064,765.28264 555.64574,764.78131 536.78125,753.65625 C 538.82831,755.29046 557.36794,768.6152 580.3125,789.4375 C 593.77624,801.65591 591.65275,805.62422 566.90625,831.15625 C 541.8098,847.35249 544.57212,861.22141 557.53125,853.96875 C 583.16077,839.62505 598.04127,854.37983 576.53125,867.03125 C 561.24746,873.9945 553.22354,874.88581 541.65625,872.09375 C 524.20835,867.88225 525.26841,857.80409 535.03125,838.375 C 542.05988,824.38726 565.53645,810.00072 566.34375,804.71875 C 567.80428,795.16293 521.31979,769.50097 518.34375,760.21875 C 514.49482,748.214 511.12236,744.67275 520.6875,732.75 C 511.01072,711.99878 521.15616,688.73639 532.875,677.375 C 548.35836,662.35003 560.36425,659.98807 582.25,664.09375 C 595.8598,666.64696 600.7306,671.40337 605.625,674.5625 C 603.75964,666.69249 602.62938,663.62921 596.4375,654.0625 C 588.82191,645.64788 580.04944,634.20727 582.59375,630.34375 C 587.419,623.01663 595.09688,617.7365 612.5,621.5 C 628.38479,624.93515 640.70897,627.45275 647.46875,660.125 C 666.6808,640.64143 662.12562,647.16441 683.03125,623.84375 C 683.03125,593.05827 683.1875,572.24204 683.1875,553 C 678.22104,557.06112 672.49598,557.76647 660.90625,559.03125 C 661.76878,533.9684 662.52664,524.36133 664.59375,500.15625 C 666.47596,478.1163 672.75524,444.19243 682.9375,431.21875 C 681.7348,405.08126 682.65625,328.38255 682.65625,319.375 C 655.26858,316.74855 630.60922,323.81124 619.3125,343.53125 C 633.72637,343.78921 617.43664,391.24909 630.17449,369.94444 C 644.59012,371.01192 543.96665,372.30722 560.33245,363.41276 C 564.2159,347.66 560.4423,336.15625 574.90625,336.15625 C 588.27359,310.896 619.69314,291.77487 642.125,288.625 C 618.20864,275.31317 596.72492,228.08275 598.19717,189.3125 C 598.19717,189.3125 599.97993,142.39497 593.64894,115.98774 C 591.01466,147.81009 558.06675,149.42335 534.2296,140.17312 C 541.04205,150.6773 549.94918,166.93358 549.94918,179.49281 C 549.94918,194.272 523.074,202.62394 531.34011,207.62718 C 549.6794,218.72742 571.52775,229.8709 564.66884,243.15582 C 560.74628,250.75337 541.42473,268.1886 543.1403,271.63444 C 551.69377,288.8146 567.81067,291.07409 575.24078,271.7284 C 579.0186,261.39455 586.96521,258.29229 591.60618,259.79738 C 594.9749,260.88988 602.30611,298.2477 566.76301,305.00608 C 539.15705,310.25525 510.82119,279.49961 521.50967,261.34788 C 530.07744,246.79764 534.93921,242.88755 539.14996,240.14983 C 546.47648,235.38633 530.72334,234.05493 521.37017,225.59139 C 505.97629,211.66171 511.00045,199.69072 522.6875,189.46875 C 532.94931,180.49335 533.04624,177.07405 521.59375,157.6875 C 504.95496,129.52012 511.0213,80.046747 536.84375,66.03125 C 571.25394,47.354633 628.10088,45.359758 632.28125,117.09976 C 649.26089,99.16382 674.70234,93.171802 685.93709,89.288567 C 685.93709,80.423164 686.01698,65.130409 686.01698,56.341157 C 694.70029,39.633797 719.163,39.066202 728.96875,54.125 C 728.96875,67.867274 728.625,74.654952 728.625,85.915802 C 765.26071,87.880877 782.40753,92.060024 811.75472,92.060024 C 806.24393,83.762871 790.94235,43.594194 803.89658,36.660967 C 812.15283,32.242393 822.53482,35.221751 828.23561,35.701887 C 828.23561,35.701887 828.60025,23.108081 850.65625,27.375 C 854.23587,28.067506 848.88596,43.188458 847.56498,50.535967 C 856.86631,41.045923 861.18246,38.373922 871.11061,36.966274 C 876.53454,36.197254 885.55052,29.882369 898.89186,28.528774 C 912.2332,27.175179 929.21201,31.496344 933.43031,32.08408 C 941.2049,65.959786 938.37748,84.61533 938.37748,84.61533 C 954.83035,84.596927 927.51691,119.63995 908.98809,125.82689 C 921.97945,130.50697 936.70317,128.88008 946.68998,128.29564 C 937.40359,144.41212 940.98023,153.65264 910.07217,173.39906 C 906.33998,175.78346 898.99504,171.79488 905.19717,186.60814 C 908.18514,193.74462 808.91409,191.86469 790.94728,184.31285 C 772.26888,158.93321 755.38282,135.43016 730.125,123.125 C 730.12745,131.45498 730.84475,160.10041 730.8125,170.86106 C 737.50777,172.10299 748.31967,175.82495 758.75248,182.10814 C 754.77277,191.73756 751.0905,196.59635 744.46875,210.4717 C 739.60059,207.98126 735.71576,203.78887 730.46875,201.20888 C 730.46873,213.94256 729.82984,267.95274 731.0625,280.9375 C 748.92957,295.70674 758.62185,309.80997 756.10612,290.91344 C 767.65458,290.91345 768.87092,291.15625 786.35948,291.15625 C 786.3595,299.96845 786.81498,310.5086 786.81498,318.46875 C 809.02847,338.66698 855.68099,410.09159 853.94717,458.64658 C 882.3653,425.70613 891.22245,419.96144 913.96875,423.875 C 929.19781,426.49521 959.2035,461.26716 942.34375,490.875 C 951.1837,499.82509 968.28367,519.18961 951.4375,530.375 C 939.96829,537.9903 925.9528,546.27713 933.5,564.5625 C 938.17698,575.89385 929.01425,588.66258 923.53125,590.875 C 922.289,591.37625 921.49963,591.87364 921.15625,592.34375 C 921.11095,592.40847 921.06018,592.49879 921.03125,592.5625 C 921.02117,592.58634 921.0078,592.63256 921,592.65625 C 920.9948,592.66633 920.97465,592.70723 920.96875,592.71875 C 920.96877,592.72159 920.96861,592.74657 920.96875,592.75 C 920.96806,592.76072 920.96821,592.7993 920.96875,592.8125 C 920.96887,592.81652 920.96877,592.84019 920.96875,592.84375 C 920.96825,592.85534 920.96878,592.88859 920.96875,592.90625 C 920.96889,592.91431 920.96844,592.93175 920.96875,592.9375 C 920.96884,592.94816 920.96933,592.98671 920.96875,593 C 920.96877,593.00403 920.96851,593.02771 920.96875,593.03125 C 920.97583,593.05606 920.99371,593.10529 921,593.125 C 921.00538,593.1358 921.02563,593.17672 921.03125,593.1875 C 921.03801,593.20234 921.05476,593.23525 921.0625,593.25 C 921.08719,593.29413 921.1228,593.36296 921.15625,593.40625 C 921.16709,593.41708 921.20767,593.45794 921.21875,593.46875 C 921.23487,593.48502 921.27071,593.52065 921.28125,593.53125 C 922.33433,594.55258 926.01934,594.4132 931.5,595.53125 C 959.92902,601.33074 953.41182,624.58128 909.78125,609.9375 C 898.50112,606.15154 895.16794,586.19403 906.84375,577.65625 C 916.19075,570.8216 909.64972,568.59857 909.15625,559.1875 C 908.52562,547.1613 908.15545,537.03789 924.09375,525.5 C 934.91035,517.66978 934.56605,515.32068 931.8125,511.03125 C 927.12463,503.72855 921.91168,520.33407 908.90625,522.9375 C 883.95737,527.93176 874.90714,517.79372 873.3125,503.59375 C 871.96999,491.63876 874.0742,481.64235 886.625,474.65625 C 896.31264,469.26386 908.11868,475.27632 919.09375,480.875 C 919.12899,480.92609 919.17925,480.98782 919.21875,481.03125 C 919.22502,481.03789 919.24416,481.05658 919.25,481.0625 C 919.25387,481.06608 919.27536,481.08763 919.28125,481.09375 C 919.28403,481.09659 919.30919,481.12152 919.3125,481.125 C 919.31416,481.12482 919.3367,481.12494 919.34375,481.125 C 919.34653,481.12786 919.37169,481.15266 919.375,481.15625 C 919.37831,481.15599 919.40347,481.15633 919.40625,481.15625 C 919.41151,481.16202 919.43224,481.18194 919.4375,481.1875 C 919.44081,481.18737 919.46597,481.18755 919.46875,481.1875 C 919.47153,481.18749 919.49669,481.18758 919.5,481.1875 C 919.50479,481.18783 919.52646,481.18737 919.53125,481.1875 C 919.53604,481.18743 919.55771,481.18777 919.5625,481.1875 C 919.56581,481.18757 919.58706,481.18748 919.59375,481.1875 C 919.59653,481.18754 919.62169,481.18738 919.625,481.1875 C 919.6315,481.18111 919.65362,481.15914 919.65625,481.15625 C 919.65903,481.15632 919.68419,481.15601 919.6875,481.15625 C 919.69943,481.15075 919.73392,481.13339 919.75,481.125 C 919.75294,481.12176 919.77856,481.09654 919.78125,481.09375 C 919.78887,481.0878 919.80488,481.06891 919.8125,481.0625 C 920.77221,480.1979 921.72097,475.75339 922.125,472.46875 C 924.01679,457.0891 914.10732,452.26656 903.9375,452.03125 C 894.64019,451.81613 886.85513,457.56875 876.59375,470.96875 C 864.99036,486.1213 853.74138,535.6861 852.1875,539.4375 C 847.1216,551.66735 835.53664,567.06401 824.59375,577.34375 L 796.625,601.0625 L 857.3125,616.65625 C 851.12678,626.3869 844.62868,631.58188 828.66991,641.20616 C 789.33952,631.74746 753.25107,634.73048 728.09375,652.84375 C 728.09375,704.90691 729.69109,766.5815 733.8125,874.125 C 795.69953,889.72256 815.75143,905.39553 855.5,937.09375 C 855.49998,937.09378 922.43044,850.55996 940,815.46875 C 991.93974,711.73366 992.43663,683.66525 992.59375,328.5625 L 987.03125,10 L 498.28125,9.96875 z "
     id="path19420"
     sodipodi:nodetypes="cccccscccccccscscscscssssccsccssccccsccccccccccsssscsssssscsccccccscscssccccsscccccccccccscssssssssssssssssssssssssssssscsssssssssssssssssssssssccccccscccc" />
  <path
     sodipodi:type="arc"
     style="opacity:1;fill:#fff200;fill-opacity:1;stroke:#000000;stroke-width:7;stroke-miterlimit:4;stroke-dasharray:none;stroke-opacity:1"
     id="path6803"
     sodipodi:cx="1813.3398"
     sodipodi:cy="482.58347"
     sodipodi:rx="22.138441"
     sodipodi:ry="22.138441"
     d="M 1835.4783 482.58347 A 22.138441 22.138441 0 1 1  1791.2014,482.58347 A 22.138441 22.138441 0 1 1  1835.4783 482.58347 z"
     inkscape:r_cx="true"
     inkscape:r_cy="true"
     transform="matrix(1.089197,0,0,1.089197,-1333.883,-143.2583)" />
  <rect
     style="opacity:1;fill:#000000;fill-opacity:1;stroke:none;stroke-width:7;stroke-miterlimit:4;stroke-dasharray:none;stroke-opacity:1"
     id="rect7780"
     width="91.350235"
     height="158.47295"
     x="535.98096"
     y="377.98584"
     inkscape:r_cx="true"
     inkscape:r_cy="true" />
  <path
     style="fill:#000000;fill-opacity:1"
     d="M 862.71672,90.564558 C 884.05882,82.653244 908.94721,52.511026 917.94491,45.126247 C 926.94262,37.741465 910.05693,62.219405 895.64082,76.475203 C 881.22471,90.731001 855.62477,101.66119 847.88397,101.63416 C 838.60316,101.60177 846.93843,98.77089 862.71672,90.564558 z "
     id="path19416"
     inkscape:r_cx="true"
     inkscape:r_cy="true"
     sodipodi:nodetypes="csssc" />
  <path
     style="fill:#fff200;fill-opacity:1"
     d="M 730.46392,290.6559 C 730.46392,303.40565 730.84587,316.82122 730.84587,324.99269 C 793.6692,344.12011 840.12564,449.54744 822.21875,494.15625 C 819.82741,500.11277 817.58678,503.65058 816.125,504.21875 C 816.04859,504.24661 815.94715,504.26981 815.875,504.28125 C 815.86941,504.28198 815.84999,504.28083 815.84375,504.28125 C 815.80359,504.28222 815.75101,504.28171 815.71875,504.28125 C 815.69909,504.28141 815.64741,504.28078 815.625,504.28125 C 815.6197,504.28118 815.59856,504.2816 815.59375,504.28125 C 815.56104,504.27452 815.5003,504.26092 815.46875,504.25 C 815.43358,504.23654 815.38161,504.20934 815.34375,504.1875 C 815.31584,504.17026 815.2741,504.14312 815.25,504.125 C 815.23912,504.11415 815.19831,504.07361 815.1875,504.0625 C 815.15761,504.03437 815.09576,503.97429 815.0625,503.9375 C 815.05664,503.93009 815.03705,503.9139 815.03125,503.90625 C 815.00256,503.86683 814.96459,503.79539 814.9375,503.75 C 814.63776,503.22825 814.43097,502.31969 814.375,501.0625 C 813.4889,481.19945 788.23508,460.5625 764.8125,460.5625 C 749.85488,460.56251 730.81322,470.73378 708.84375,490.46875 C 693.74986,504.02793 685.89094,510.61736 683.75,510.9375 C 683.71482,510.94199 683.65697,510.93654 683.625,510.9375 C 683.60577,510.93727 683.54923,510.93911 683.53125,510.9375 C 683.51726,510.93577 683.48194,510.94011 683.46875,510.9375 C 683.46235,510.93597 683.4437,510.93925 683.4375,510.9375 C 683.4315,510.93553 683.41205,510.90844 683.40625,510.90625 C 683.40065,510.90384 683.38041,510.90887 683.375,510.90625 C 683.36201,510.89857 683.33009,510.88607 683.3125,510.875 C 683.30863,510.87218 683.28458,510.84651 683.28125,510.84375 C 683.26113,510.81953 683.23325,510.78061 683.21875,510.75 C 682.81587,509.75983 685.05602,505.74544 689.4375,499 C 705.1456,474.8173 735.74295,452.59375 753.3125,452.59375 C 773.09514,452.59375 777.32113,434.29456 755.20908,417.30047 C 709.00929,381.79388 740.39633,397.19742 759.01934,413.70436 C 781.60855,433.72685 776.41476,447.52425 781.81921,447.64436 C 787.28294,447.76579 786.34544,439.41505 786.25731,432.22123 C 786.03001,413.67768 748.79659,382.23652 716.1875,380.9375 C 689.34203,379.86808 698.24972,391.6562 714.1875,407.59375 C 730.02319,423.42947 729.25453,428.65625 711.15625,428.65625 C 687.59331,428.65623 677.17611,448.11793 672.375,501.0625 L 667.9375,550.125 L 687.0625,539.5625 C 697.58667,533.7393 724.04562,523.5083 730.90625,512.375 C 754.95394,473.35084 760.81822,479.47779 743.96875,511.78125 C 727.32729,553.36011 754.25198,549.387 769.96875,523.4375 C 777.2071,531.08148 788.41212,534.49428 779.34375,501.25 C 773.06718,469.865 784.92894,469.07723 797.75,500.03125 C 813.40628,537.82829 799.85199,563.07274 749.6875,589.46875 C 725.77684,602.04978 692.60689,626.64638 676,644.125 C 658.92613,662.0944 653.79704,663.65478 641.90728,678.48811 C 638.91198,637.10848 623.16318,625.92783 603.53125,625.92783 C 596.02653,625.92783 591.41489,626.95348 590.84521,630.28453 C 590.27554,633.61557 593.74783,639.25201 602.41097,648.47358 C 613.34509,660.11225 613.73028,666.97014 613.44396,690.70326 C 606.39785,684.19523 606.50735,682.46596 590.5625,676.21875 C 578.45446,671.47481 549.94559,658.98016 530.375,695.3125 C 516.25719,716.85815 523.55856,740.61435 548.59375,754.625 C 566.55087,764.67418 592.3407,750.98146 588.96875,733.1875 C 586.26911,718.94597 569.0354,704.66317 543.96875,725.625 C 543.96872,729.89212 545.8452,733.9942 548.875,734.09375 C 572.58443,715.68422 579.15625,726.32248 579.15625,735.84375 C 579.15627,745.22783 572.74286,749.32265 556.65625,746.25 C 524.35765,740.08075 533.79166,685.19345 561.875,683.625 C 609.32372,680.97502 617.13423,709.57233 614.9375,764.65625 C 612.96693,814.06924 617.5122,856.42392 630.3125,888.28125 C 637.046,888.21426 646.60791,880.8352 671.65625,875 C 664.04651,850.23717 669.40135,870.11797 659,835.09375 C 644.19951,785.25548 643.59623,770.03487 654.84375,729.53125 C 673.29775,663.08003 728.64066,621.63089 808.71875,629.53125 C 815.63957,630.21408 820.85275,631.89515 828.03125,632.59375 C 828.66887,628.2609 841.28978,626.10979 847.21875,621.5 C 833.38434,616.82487 820.10552,613.57103 801.84375,611.09375 L 770.15625,607.09375 L 795.75,586.53125 C 821.2964,569.64595 832.17818,554.91077 845.6875,518.75 C 871.79539,448.86775 901.03814,429.46963 925.5,456.53125 C 933.47366,466.13954 926.78788,479.27051 922.3125,488.4375 C 916.54915,500.24267 903.89091,509.00492 897.4375,508.4375 C 874.54785,506.4249 888.37033,475.90371 912.9375,491.34375 C 914.19855,488.6577 913.97495,489.07206 916.46875,486.28125 C 897.22525,474.68644 881.49422,479.05374 880.125,493.03125 C 878.74011,507.16903 880.59779,516.40625 896.09375,516.40625 C 930.91861,516.40628 952.17376,469.66968 929,444.0625 C 910.29971,423.68003 895.68643,424.76863 868.90625,453.4375 L 845.78125,478.21875 L 845.78125,451.96875 C 845.78123,417.98308 812.77983,356.44379 780.404,322.25248 C 780.404,309.98109 780.23613,301.76392 780.23613,295.12834 C 774.84934,295.12834 769.30822,295.27123 762.25235,295.27123 C 762.25235,301.86393 764.49153,313.77017 756.81533,309.82217 C 752.58646,307.64714 737.98608,295.27491 730.46392,290.6559 z "
     id="path19414"
     sodipodi:nodetypes="cccssssssssssssssscssssssssssssssssssscccscccccccssscscscccssssccscscccccccssccsscccccccsc" />
  <path
     sodipodi:type="arc"
     style="opacity:1;fill:#fff200;fill-opacity:1;stroke:#000000;stroke-width:7;stroke-miterlimit:4;stroke-dasharray:none;stroke-opacity:1"
     id="path7778"
     sodipodi:cx="1813.3398"
     sodipodi:cy="482.58347"
     sodipodi:rx="22.138441"
     sodipodi:ry="22.138441"
     d="M 1835.4783 482.58347 A 22.138441 22.138441 0 1 1  1791.2014,482.58347 A 22.138441 22.138441 0 1 1  1835.4783 482.58347 z"
     inkscape:r_cx="true"
     inkscape:r_cy="true"
     transform="matrix(1.089197,0,0,1.089197,-1371.148,7.99675)" />
  <path
     style="fill:#fff200;fill-opacity:1"
     d="M 720.30399,656.38152 C 721.72711,653.30575 704.45087,665.95028 695.39221,674.17862 C 695.39221,772.60255 693.89993,801.2441 693.89993,872.65588 C 706.22339,872.54127 711.10901,872.79458 721.53588,872.79458 C 721.53588,817.02876 720.30399,744.72109 720.30399,656.38152 z "
     id="path19412"
     inkscape:r_cx="true"
     inkscape:r_cy="true"
     sodipodi:nodetypes="ccccc" />
  <path
     style="fill:#0072bc|g;fill-opacity:1"
     d="M 685.33439,688.93302 C 636.24562,757.64456 670.1906,836.41077 683.53166,873.26842 C 685.09064,813.05416 684.18465,707.77591 685.33439,688.93302 z "
     id="path19406"
     inkscape:r_cx="true"
     inkscape:r_cy="true"
     sodipodi:nodetypes="ccc" />
  <path
     style="fill:#fff200;fill-opacity:1"
     d="M 722.23204,596.37548 C 722.23204,569.67392 722.32587,559.76105 722.32587,529.73853 C 713.06638,534.5188 699.27497,544.65644 691.22463,547.06713 C 691.22463,570.60998 692.13709,594.85991 692.13709,618.73558 C 699.12952,612.88271 710.65968,606.46848 722.23204,596.37548 z "
     id="path19358"
     inkscape:r_cx="true"
     inkscape:r_cy="true"
     sodipodi:nodetypes="ccccc" />
  <path
     style="fill:#0072bc|g;fill-opacity:1"
     d="M 730.48596,590.86675 C 730.48596,590.86675 829.00834,554.57113 784.18028,491.24259 C 784.18028,491.24259 797.07689,545.01316 771.90132,533.66737 C 763.84779,539.76594 744.13205,553.2989 737.7247,547.98097 C 728.10174,539.99486 736.98013,527.31873 730.22034,526.90915 C 730.22034,552.3105 730.48596,570.34509 730.48596,590.86675 z "
     id="path19354"
     inkscape:r_cx="true"
     inkscape:r_cy="true"
     sodipodi:nodetypes="cccscc" />
  <path
     style="fill:#0072bc|g;fill-opacity:1"
     d="M 730.60566,331.24493 C 730.60566,351.1153 730.51203,364.35875 730.51203,371.35625 C 754.70492,380.33488 791.0105,395.89205 795.71875,435.65625 C 796.97223,446.24267 789.36272,457.5459 798.48325,463.18267 C 805.55286,468.4834 811.82744,479.92723 817.21875,482.71875 C 822.61005,420.04706 772.14151,340.83706 730.60566,331.24493 z "
     id="path19334"
     sodipodi:nodetypes="ccsccc" />
  <path
     style="fill:#fff200;fill-opacity:1"
     d="M 722.69764,371.72986 C 722.69764,299.15678 722.57488,241.16029 722.49757,198.89599 C 709.87926,193.59508 702.797,193.30859 693.74037,193.57947 C 692.98142,254.32411 692.81019,265.74747 693.12462,369.89879 C 702.86402,369.89879 713.13786,372.77983 722.69764,371.72986 z "
     id="path19302"
     inkscape:r_cx="true"
     inkscape:r_cy="true"
     sodipodi:nodetypes="ccccc" />
  <path
     style="fill:#0072bc|g;fill-opacity:1"
     d="M 684.69698,266.83953 C 684.69698,244.35276 685.04544,219.33285 685.04544,193.47611 C 643.63991,201.6016 650.18649,232.61871 684.69698,266.83953 z "
     id="path19278"
     inkscape:r_cx="true"
     inkscape:r_cy="true"
     sodipodi:nodetypes="ccc" />
  <path
     style="fill:#0072bc|g;fill-opacity:1"
     d="M 685.66185,163.70817 C 685.66185,142.41752 685.25005,136.4271 685.25005,123.01386 C 666.12464,124.34156 647.9567,148.54037 637.20578,186.27971 C 647.23646,168.59743 667.77295,165.2854 685.66185,163.70817 z "
     id="path19258"
     inkscape:r_cx="true"
     inkscape:r_cy="true"
     sodipodi:nodetypes="cccc" />
  <path
     style="fill:#fff200;fill-opacity:1"
     d="M 724.18028,167.33257 C 724.18028,141.62711 724.08525,140.81989 724.08525,120.63889 C 712.76307,119.11345 704.30644,115.73946 691.72778,120.44626 C 691.72778,139.98118 691.29334,145.05693 691.29334,162.97071 C 705.08397,163.41039 712.46884,163.98933 724.18028,167.33257 z "
     id="path19256"
     inkscape:r_cx="true"
     inkscape:r_cy="true"
     sodipodi:nodetypes="ccccc" />
  <path
     style="fill:#0072bc|g;fill-opacity:1"
     d="M 758.31183,111.98893 C 773.87783,123.82584 798.41267,154.04652 810.39234,173.39747 C 816.99236,174.20654 821.32867,187.91569 828.04555,190.05287 C 829.6251,187.47473 840.16057,183.4712 842.13228,181.00922 C 815.99751,164.8498 804.0688,139.38071 817.64448,113.2614 C 797.3385,113.2614 779.08966,111.98893 758.31183,111.98893 z "
     id="path19254"
     inkscape:r_cx="true"
     inkscape:r_cy="true"
     sodipodi:nodetypes="cccccc" />
  <path
     style="fill:#fff200;fill-opacity:1"
     d="M 723.69268,57.744205 C 713.62976,47.642577 702.58001,48.297026 692.659,57.856809 C 692.659,72.95187 692.73407,71.290461 692.73407,87.932992 C 703.81303,87.932992 710.41105,86.188864 723.35093,86.188864 C 723.35093,75.085944 723.69268,75.958825 723.69268,57.744205 z "
     id="path19242"
     inkscape:r_cx="true"
     inkscape:r_cy="true"
     sodipodi:nodetypes="ccccc" />
  <path
     sodipodi:type="arc"
     style="opacity:1;fill:#fff200;fill-opacity:1;stroke:#000000;stroke-width:7;stroke-miterlimit:4;stroke-dasharray:none;stroke-opacity:1"
     id="path6813"
     sodipodi:cx="1813.3398"
     sodipodi:cy="482.58347"
     sodipodi:rx="22.138441"
     sodipodi:ry="22.138441"
     d="M 1835.4783 482.58347 A 22.138441 22.138441 0 1 1  1791.2014,482.58347 A 22.138441 22.138441 0 1 1  1835.4783 482.58347 z"
     inkscape:r_cx="true"
     inkscape:r_cy="true"
     transform="matrix(1.089197,0,0,1.089197,-1443.487,-143.2584)" />
  <path
     style="fill:#0072bc|g;fill-opacity:1"
     d="M 910.46433,494.30732 C 903.32283,490.74765 900.37251,490.67564 896.35702,491.93931 C 887.90492,494.59918 888.94845,500.44001 894.47805,503.34683 C 902.46818,507.54712 906.5624,499.09411 910.46433,494.30732 z "
     id="path7658"
     inkscape:r_cx="true"
     inkscape:r_cy="true"
     sodipodi:nodetypes="cssc" />
  <path
     style="fill:#fff200;fill-opacity:1"
     d="M 930.64937,601.1412 C 919.85486,600.70937 907.48423,594.50957 919.16003,585.97179 C 928.50713,579.13715 930.89184,572.7732 925.50335,557.43373 C 922.12721,547.8228 926.11149,543.11101 941.44136,530.77617 C 959.30196,516.40504 954.20303,510.14322 938.11212,496.68004 C 934.59904,500.05176 936.69651,498.59173 933.67763,502.64473 C 933.67763,511.23969 955.17928,512.69162 930.30579,527.22695 C 921.12725,532.59061 915.36159,545.32229 915.36159,556.55563 C 915.36159,567.48447 924.56121,570.08626 914.17354,579.44515 C 909.08937,584.02579 905.71947,584.54533 905.77269,594.37064 C 905.8245,603.93642 919.47437,609.90903 931.46757,609.98472 C 949.55867,610.09877 947.36317,601.80982 930.64937,601.1412 z "
     id="path7660"
     inkscape:r_cx="true"
     inkscape:r_cy="true"
     sodipodi:nodetypes="csssccssssss" />
  <path
     style="fill:#0072bc|g;fill-opacity:1"
     d="M 553.09245,737.94965 C 562.01284,730.83219 564.41378,729.60071 568.62287,729.53341 C 580.27698,729.34705 574.23392,743.61308 566.58828,743.0756 C 562.54258,742.79119 559.48483,740.95754 553.09245,737.94965 z "
     id="path8537"
     inkscape:r_cx="true"
     inkscape:r_cy="true"
     sodipodi:nodetypes="cssc" />
  <path
     style="fill:#fff200;fill-opacity:1"
     d="M 547.19928,866.17558 C 540.67332,864.95533 539.89722,864.25265 535.91881,859.90062 C 529.71751,853.11693 544.82214,828.55734 562.30709,818.19877 C 571.07123,813.00665 580.19942,804.94338 564.86955,792.60854 C 547.00895,778.23741 507.99138,751.69623 524.08229,738.23305 C 526.17225,742.31633 527.27679,744.41408 530.29567,748.46708 C 524.24744,755.63893 549.17647,765.99226 571.38,787.28043 C 589.0069,804.18065 577.07397,813.55867 568.17951,822.30156 C 560.38277,829.95991 531.92248,853.3092 544.81886,858.71066 C 559.15327,864.71441 580.41984,846.0231 580.25886,855.84724 C 580.20705,859.00901 565.34846,869.56919 547.19928,866.17558 z "
     id="path8540"
     inkscape:r_cx="true"
     inkscape:r_cy="true"
     sodipodi:nodetypes="csssccsssss" />
  <path
     style="fill:#fff200;fill-opacity:1"
     d="M 702.12458,402.74853 C 693.03552,391.18873 692.1369,367.73066 692.1369,405.50662 C 692.1369,439.09288 691.94111,420.61349 710.53148,422.6794 C 723.47221,424.11748 708.59238,410.9745 702.12458,402.74853 z "
     id="path8544"
     inkscape:r_cx="true"
     inkscape:r_cy="true"
     sodipodi:nodetypes="csss" />
  <path
     style="fill:#fff200;fill-opacity:1"
     d="M 518.77877,124.40377 C 515.95842,149.09725 541.43474,174.05197 535.56958,181.69222 C 526.66705,193.28906 503.64357,207.61415 526.71875,221.59375 C 543.54753,231.7891 554.87658,231.81582 547.78125,239.125 C 533.81833,253.50874 527.30174,258.5501 526.9375,267.75 C 526.20213,286.32427 535.28261,292.2932 549.28125,296.65625 C 586.49632,308.2553 591.0298,264.90334 587.875,264.6875 C 584.01081,264.42314 575.98543,307.31841 545.90625,287.1875 C 519.55786,269.55741 539.83727,260.44948 556.1875,241.21875 C 564.26612,231.71688 551.64615,226.95666 534.71875,218.28125 C 509.46788,205.34001 535.60545,194.15646 542.24033,184.35094 C 549.69268,173.33731 527.87368,147.67042 527.10094,135.36533 C 524.08206,131.31233 520.86871,128.48705 518.77877,124.40377 z "
     id="path2343"
     sodipodi:nodetypes="csssssscssscc" />
  <path
     style="fill:#0072bc|g;fill-opacity:1"
     d="M 541.4981,110.66447 C 550.41849,103.54701 559.59468,99.746888 563.7883,100.11357 C 577.93286,101.35032 573.29677,120.03959 565.66727,120.77132 C 553.79445,121.91002 544.68847,119.00904 541.4981,110.66447 z "
     id="path2352"
     inkscape:r_cx="true"
     inkscape:r_cy="true"
     sodipodi:nodetypes="cssc" />
  <path
     sodipodi:type="arc"
     style="opacity:1;fill:#fff200;fill-opacity:1;stroke:#000000;stroke-width:7;stroke-miterlimit:4;stroke-dasharray:none;stroke-opacity:1"
     id="path6781"
     sodipodi:cx="1813.3398"
     sodipodi:cy="482.58347"
     sodipodi:rx="22.138441"
     sodipodi:ry="22.138441"
     d="M 1835.4783 482.58347 A 22.138441 22.138441 0 1 1  1791.2014,482.58347 A 22.138441 22.138441 0 1 1  1835.4783 482.58347 z"
     inkscape:r_cx="true"
     inkscape:r_cy="true"
     transform="matrix(1.089197,0,0,1.089197,-1349.227,-160.7951)" />
  <path
     sodipodi:type="arc"
     style="opacity:1;fill:#fff200;fill-opacity:1;stroke:#000000;stroke-width:7;stroke-miterlimit:4;stroke-dasharray:none;stroke-opacity:1"
     id="path6783"
     sodipodi:cx="1813.3398"
     sodipodi:cy="482.58347"
     sodipodi:rx="22.138441"
     sodipodi:ry="22.138441"
     d="M 1835.4783 482.58347 A 22.138441 22.138441 0 1 1  1791.2014,482.58347 A 22.138441 22.138441 0 1 1  1835.4783 482.58347 z"
     inkscape:r_cx="true"
     inkscape:r_cy="true"
     transform="matrix(1.089197,0,0,1.089197,-1410.606,69.37561)" />
  <path
     sodipodi:type="arc"
     style="opacity:1;fill:#fff200;fill-opacity:1;stroke:#000000;stroke-width:7;stroke-miterlimit:4;stroke-dasharray:none;stroke-opacity:1"
     id="path6785"
     sodipodi:cx="1813.3398"
     sodipodi:cy="482.58347"
     sodipodi:rx="22.138441"
     sodipodi:ry="22.138441"
     d="M 1835.4783 482.58347 A 22.138441 22.138441 0 1 1  1791.2014,482.58347 A 22.138441 22.138441 0 1 1  1835.4783 482.58347 z"
     inkscape:r_cx="true"
     inkscape:r_cy="true"
     transform="matrix(1.089197,0,0,1.089197,-1354.159,-70.37085)" />
  <path
     sodipodi:type="arc"
     style="opacity:1;fill:#fff200;fill-opacity:1;stroke:#000000;stroke-width:7;stroke-miterlimit:4;stroke-dasharray:none;stroke-opacity:1"
     id="path6787"
     sodipodi:cx="1813.3398"
     sodipodi:cy="482.58347"
     sodipodi:rx="22.138441"
     sodipodi:ry="22.138441"
     d="M 1835.4783 482.58347 A 22.138441 22.138441 0 1 1  1791.2014,482.58347 A 22.138441 22.138441 0 1 1  1835.4783 482.58347 z"
     inkscape:r_cx="true"
     inkscape:r_cy="true"
     transform="matrix(1.089197,0,0,1.089197,-1421.566,27.7257)" />
  <path
     sodipodi:type="arc"
     style="opacity:1;fill:#fff200;fill-opacity:1;stroke:#000000;stroke-width:7;stroke-miterlimit:4;stroke-dasharray:none;stroke-opacity:1"
     id="path6791"
     sodipodi:cx="1813.3398"
     sodipodi:cy="482.58347"
     sodipodi:rx="22.138441"
     sodipodi:ry="22.138441"
     d="M 1835.4783 482.58347 A 22.138441 22.138441 0 1 1  1791.2014,482.58347 A 22.138441 22.138441 0 1 1  1835.4783 482.58347 z"
     inkscape:r_cx="true"
     inkscape:r_cy="true"
     transform="matrix(1.089197,0,0,1.089197,-1434.719,-16.11632)" />
  <path
     sodipodi:type="arc"
     style="opacity:1;fill:#fff200;fill-opacity:1;stroke:#000000;stroke-width:7;stroke-miterlimit:4;stroke-dasharray:none;stroke-opacity:1"
     id="path6795"
     sodipodi:cx="1813.3398"
     sodipodi:cy="482.58347"
     sodipodi:rx="22.138441"
     sodipodi:ry="22.138441"
     d="M 1835.4783 482.58347 A 22.138441 22.138441 0 1 1  1791.2014,482.58347 A 22.138441 22.138441 0 1 1  1835.4783 482.58347 z"
     inkscape:r_cx="true"
     inkscape:r_cy="true"
     transform="matrix(1.089197,0,0,1.089197,-1439.103,-112.5688)" />
  <path
     sodipodi:type="arc"
     style="opacity:1;fill:#fff200;fill-opacity:1;stroke:#000000;stroke-width:7;stroke-miterlimit:4;stroke-dasharray:none;stroke-opacity:1"
     id="path6797"
     sodipodi:cx="1813.3398"
     sodipodi:cy="482.58347"
     sodipodi:rx="22.138441"
     sodipodi:ry="22.138441"
     d="M 1835.4783 482.58347 A 22.138441 22.138441 0 1 1  1791.2014,482.58347 A 22.138441 22.138441 0 1 1  1835.4783 482.58347 z"
     inkscape:r_cx="true"
     inkscape:r_cy="true"
     transform="matrix(1.089197,0,0,1.089197,-1393.07,-18.30844)" />
  <path
     sodipodi:type="arc"
     style="opacity:1;fill:#fff200;fill-opacity:1;stroke:#000000;stroke-width:7;stroke-miterlimit:4;stroke-dasharray:none;stroke-opacity:1"
     id="path6799"
     sodipodi:cx="1813.3398"
     sodipodi:cy="482.58347"
     sodipodi:rx="22.138441"
     sodipodi:ry="22.138441"
     d="M 1835.4783 482.58347 A 22.138441 22.138441 0 1 1  1791.2014,482.58347 A 22.138441 22.138441 0 1 1  1835.4783 482.58347 z"
     inkscape:r_cx="true"
     inkscape:r_cy="true"
     transform="matrix(1.089197,0,0,1.089197,-1439.103,-64.34258)" />
  <path
     sodipodi:type="arc"
     style="opacity:1;fill:#fff200;fill-opacity:1;stroke:#000000;stroke-width:7;stroke-miterlimit:4;stroke-dasharray:none;stroke-opacity:1"
     id="path6801"
     sodipodi:cx="1813.3398"
     sodipodi:cy="482.58347"
     sodipodi:rx="22.138441"
     sodipodi:ry="22.138441"
     d="M 1835.4783 482.58347 A 22.138441 22.138441 0 1 1  1791.2014,482.58347 A 22.138441 22.138441 0 1 1  1835.4783 482.58347 z"
     inkscape:r_cx="true"
     inkscape:r_cy="true"
     transform="matrix(1.089197,0,0,1.089197,-1423.759,-169.5635)" />
  <path
     sodipodi:type="arc"
     style="opacity:1;fill:#fff200;fill-opacity:1;stroke:#000000;stroke-width:7;stroke-miterlimit:4;stroke-dasharray:none;stroke-opacity:1"
     id="path6807"
     sodipodi:cx="1813.3398"
     sodipodi:cy="482.58347"
     sodipodi:rx="22.138441"
     sodipodi:ry="22.138441"
     d="M 1835.4783 482.58347 A 22.138441 22.138441 0 1 1  1791.2014,482.58347 A 22.138441 22.138441 0 1 1  1835.4783 482.58347 z"
     inkscape:r_cx="true"
     inkscape:r_cy="true"
     transform="matrix(1.089197,0,0,1.089197,-1410.606,-116.9531)" />
  <path
     sodipodi:type="arc"
     style="opacity:1;fill:#fff200;fill-opacity:1;stroke:#000000;stroke-width:7;stroke-miterlimit:4;stroke-dasharray:none;stroke-opacity:1"
     id="path6809"
     sodipodi:cx="1813.3398"
     sodipodi:cy="482.58347"
     sodipodi:rx="22.138441"
     sodipodi:ry="22.138441"
     d="M 1835.4783 482.58347 A 22.138441 22.138441 0 1 1  1791.2014,482.58347 A 22.138441 22.138441 0 1 1  1835.4783 482.58347 z"
     inkscape:r_cx="true"
     inkscape:r_cy="true"
     transform="matrix(1.089197,0,0,1.089197,-1371.148,-112.5688)" />
  <path
     sodipodi:type="arc"
     style="opacity:1;fill:#fff200;fill-opacity:1;stroke:#000000;stroke-width:7;stroke-miterlimit:4;stroke-dasharray:none;stroke-opacity:1"
     id="path6805"
     sodipodi:cx="1813.3398"
     sodipodi:cy="482.58347"
     sodipodi:rx="22.138441"
     sodipodi:ry="22.138441"
     d="M 1835.4783 482.58347 A 22.138441 22.138441 0 1 1  1791.2014,482.58347 A 22.138441 22.138441 0 1 1  1835.4783 482.58347 z"
     inkscape:r_cx="true"
     inkscape:r_cy="true"
     transform="matrix(1.089197,0,0,1.089197,-1327.306,-114.7611)" />
  <path
     sodipodi:type="arc"
     style="opacity:1;fill:#fff200;fill-opacity:1;stroke:#000000;stroke-width:7;stroke-miterlimit:4;stroke-dasharray:none;stroke-opacity:1"
     id="path6811"
     sodipodi:cx="1813.3398"
     sodipodi:cy="482.58347"
     sodipodi:rx="22.138441"
     sodipodi:ry="22.138441"
     d="M 1835.4783 482.58347 A 22.138441 22.138441 0 1 1  1791.2014,482.58347 A 22.138441 22.138441 0 1 1  1835.4783 482.58347 z"
     inkscape:r_cx="true"
     inkscape:r_cy="true"
     transform="matrix(1.089197,0,0,1.089197,-1388.684,-158.603)" />
  <path
     style="opacity:1;fill:#fff200;fill-opacity:1;stroke:#000000;stroke-width:7.93884659;stroke-miterlimit:4;stroke-dasharray:none;stroke-opacity:1"
     d="M 785.1145,796.24317 C 767.8918,796.51967 754.6479,815.43697 760.3411,831.71987 C 764.8452,848.21517 786.3572,856.46817 800.7087,846.95967 C 816.1503,838.37687 818.3712,814.56067 804.8199,803.26057 C 799.5023,798.44217 792.2883,795.85187 785.1145,796.24317 z "
     id="path6777"
     inkscape:r_cx="true"
     inkscape:r_cy="true" />
  <path
     style="opacity:1;fill:#fff200;fill-opacity:1;stroke:#000000;stroke-width:7.93884659;stroke-miterlimit:4;stroke-dasharray:none;stroke-opacity:1"
     d="M 910.6539,627.33697 C 893.4311,627.61345 880.1872,646.53073 885.8805,662.81369 C 890.3846,679.30893 911.8966,687.56197 926.2481,678.05344 C 941.6897,669.47071 943.9105,645.65442 930.3593,634.35434 C 925.0417,629.536 917.8277,626.94564 910.6539,627.33697 z "
     id="path6755"
     inkscape:r_cx="true"
     inkscape:r_cy="true" />
  <path
     style="opacity:1;fill:#fff200;fill-opacity:1;stroke:#000000;stroke-width:7.93884659;stroke-miterlimit:4;stroke-dasharray:none;stroke-opacity:1"
     d="M 860.4385,668.42231 C 843.2158,668.69879 829.9719,687.61607 835.6651,703.89903 C 840.1692,720.39428 861.6812,728.64731 876.0327,719.13878 C 891.4743,710.55605 893.6952,686.73976 880.1439,675.43969 C 874.8263,670.62134 867.6123,668.03099 860.4385,668.42231 z "
     id="path6751"
     inkscape:r_cx="true"
     inkscape:r_cy="true" />
  <path
     style="opacity:1;fill:#fff200;fill-opacity:1;stroke:#000000;stroke-width:7.93884659;stroke-miterlimit:4;stroke-dasharray:none;stroke-opacity:1"
     d="M 769.6767,698.095 C 752.4539,698.37148 739.21,717.28876 744.9033,733.57172 C 749.4073,750.06697 770.9193,758.31997 785.2708,748.81147 C 800.7125,740.22877 802.9333,716.41245 789.382,705.11237 C 784.0645,700.29403 776.8505,697.70367 769.6767,698.095 z "
     id="path6773"
     inkscape:r_cx="true"
     inkscape:r_cy="true" />
  <path
     style="opacity:1;fill:#fff200;fill-opacity:1;stroke:#000000;stroke-width:7.93884659;stroke-miterlimit:4;stroke-dasharray:none;stroke-opacity:1"
     d="M 816.5005,687.25314 C 799.2778,687.52962 786.0339,706.4469 791.7271,722.72986 C 796.2312,739.22507 817.7432,747.47817 832.0947,737.96957 C 847.5363,729.38688 849.7572,705.57059 836.2059,694.27052 C 830.8883,689.45217 823.6743,686.86182 816.5005,687.25314 z "
     id="path1509"
     inkscape:r_cx="true"
     inkscape:r_cy="true" />
  <path
     style="opacity:1;fill:#fff200;fill-opacity:1;stroke:#000000;stroke-width:7.93884659;stroke-miterlimit:4;stroke-dasharray:none;stroke-opacity:1"
     d="M 867.2861,615.92442 C 850.0634,616.2009 836.8195,635.11818 842.5127,651.40114 C 847.0168,667.89639 868.5288,676.14942 882.8803,666.64089 C 898.3219,658.05816 900.5428,634.24187 886.9915,622.9418 C 881.6739,618.12345 874.4599,615.5331 867.2861,615.92442 z "
     id="path6749"
     inkscape:r_cx="true"
     inkscape:r_cy="true" />
  <path
     style="opacity:1;fill:#fff200;fill-opacity:1;stroke:#000000;stroke-width:7.93884659;stroke-miterlimit:4;stroke-dasharray:none;stroke-opacity:1"
     d="M 894.6764,652.44471 C 877.4536,652.72118 864.2097,671.63847 869.903,687.92143 C 874.4071,704.41667 895.9191,712.6697 910.2706,703.16118 C 925.7122,694.57844 927.933,670.76215 914.3818,659.46208 C 909.0642,654.64373 901.8502,652.05338 894.6764,652.44471 z "
     id="path6757"
     inkscape:r_cx="true"
     inkscape:r_cy="true" />
  <path
     style="opacity:1;fill:#fff200;fill-opacity:1;stroke:#000000;stroke-width:7.93884659;stroke-miterlimit:4;stroke-dasharray:none;stroke-opacity:1"
     d="M 903.8064,700.37753 C 886.5837,700.65401 873.3397,719.57129 879.033,735.85427 C 883.5371,752.34947 905.0491,760.60257 919.4006,751.09397 C 934.8422,742.51127 937.063,718.69498 923.5118,707.39491 C 918.1942,702.57656 910.9802,699.9862 903.8064,700.37753 z "
     id="path6759"
     inkscape:r_cx="true"
     inkscape:r_cy="true" />
  <path
     style="opacity:1;fill:#fff200;fill-opacity:1;stroke:#000000;stroke-width:7.93884659;stroke-miterlimit:4;stroke-dasharray:none;stroke-opacity:1"
     d="M 785.1145,647.87964 C 767.8918,648.15612 754.6479,667.0734 760.3411,683.35636 C 764.8452,699.85161 786.3572,708.10464 800.7087,698.59611 C 816.1503,690.01338 818.3712,666.19709 804.8199,654.89701 C 799.5023,650.07867 792.2883,647.48831 785.1145,647.87964 z "
     id="path6761"
     inkscape:r_cx="true"
     inkscape:r_cy="true" />
  <path
     style="opacity:1;fill:#fff200;fill-opacity:1;stroke:#000000;stroke-width:7.93884659;stroke-miterlimit:4;stroke-dasharray:none;stroke-opacity:1"
     d="M 828.4833,630.15939 C 811.2606,630.43587 798.0166,649.35315 803.7099,665.63611 C 808.214,682.13136 829.726,690.38439 844.0775,680.87586 C 859.5191,672.29313 861.7399,648.47684 848.1887,637.17677 C 842.8711,632.35842 835.6571,629.76807 828.4833,630.15939 z "
     id="path6753"
     inkscape:r_cx="true"
     inkscape:r_cy="true" />
  <rect
     style="opacity:1;fill:#000000;fill-opacity:1;stroke:none;stroke-width:7;stroke-miterlimit:4;stroke-dasharray:none;stroke-opacity:1"
     id="rect6901"
     width="78.490845"
     height="48.302059"
     x="815.09729"
     y="756.29504"
     inkscape:r_cx="true"
     inkscape:r_cy="true" />
  <path
     style="opacity:1;fill:#fff200;fill-opacity:1;stroke:#000000;stroke-width:7.93884659;stroke-miterlimit:4;stroke-dasharray:none;stroke-opacity:1"
     d="M 855.8735,723.20274 C 838.6507,723.47921 825.4068,742.39647 831.1001,758.67947 C 835.6041,775.17467 857.1161,783.42777 871.4676,773.91917 C 886.9093,765.33647 889.1301,741.52017 875.5788,730.22011 C 870.2613,725.40176 863.0472,722.81141 855.8735,723.20274 z "
     id="path6763"
     inkscape:r_cx="true"
     inkscape:r_cy="true" />
  <path
     style="opacity:1;fill:#fff200;fill-opacity:1;stroke:#000000;stroke-width:7.93884659;stroke-miterlimit:4;stroke-dasharray:none;stroke-opacity:1"
     d="M 890.1113,755.15797 C 872.8886,755.43447 859.6447,774.35167 865.3379,790.63467 C 869.842,807.12987 891.354,815.38297 905.7055,805.87437 C 921.1471,797.29167 923.368,773.47537 909.8167,762.17537 C 904.4991,757.35697 897.2851,754.76667 890.1113,755.15797 z "
     id="path6765"
     inkscape:r_cx="true"
     inkscape:r_cy="true" />
  <path
     style="opacity:1;fill:#fff200;fill-opacity:1;stroke:#000000;stroke-width:7.93884659;stroke-miterlimit:4;stroke-dasharray:none;stroke-opacity:1"
     d="M 860.4387,793.96067 C 843.2159,794.23717 829.972,813.15437 835.6653,829.43737 C 840.1693,845.93257 861.6813,854.18567 876.0328,844.67707 C 891.4744,836.09437 893.6953,812.27807 880.144,800.97807 C 874.8265,796.15967 867.6124,793.56937 860.4387,793.96067 z "
     id="path6767"
     inkscape:r_cx="true"
     inkscape:r_cy="true" />
  <path
     style="opacity:1;fill:#fff200;fill-opacity:1;stroke:#000000;stroke-width:7.93884659;stroke-miterlimit:4;stroke-dasharray:none;stroke-opacity:1"
     d="M 823.9184,766.57037 C 806.6956,766.84687 793.4517,785.76417 799.145,802.04707 C 803.649,818.54237 825.161,826.79537 839.5125,817.28687 C 854.9542,808.70407 857.175,784.88787 843.6237,773.58777 C 838.3062,768.76937 831.0921,766.17907 823.9184,766.57037 z "
     id="path6769"
     inkscape:r_cx="true"
     inkscape:r_cy="true" />
  <path
     style="opacity:1;fill:#fff200;fill-opacity:1;stroke:#000000;stroke-width:7.93884659;stroke-miterlimit:4;stroke-dasharray:none;stroke-opacity:1"
     d="M 769.137,750.59287 C 751.9143,750.86937 738.6704,769.78667 744.3636,786.06957 C 748.8677,802.56487 770.3797,810.81787 784.7312,801.30937 C 800.1728,792.72667 802.3937,768.91037 788.8424,757.61027 C 783.5248,752.79187 776.3108,750.20157 769.137,750.59287 z "
     id="path6775"
     inkscape:r_cx="true"
     inkscape:r_cy="true" />
  <path
     style="opacity:1;fill:#fff200;fill-opacity:1;stroke:#000000;stroke-width:7.93884659;stroke-miterlimit:4;stroke-dasharray:none;stroke-opacity:1"
     d="M 821.6358,825.91587 C 804.4131,826.19237 791.1692,845.10967 796.8624,861.39257 C 801.3665,877.88787 822.8785,886.14087 837.23,876.63237 C 852.6716,868.04957 854.8925,844.23327 841.3412,832.93327 C 836.0236,828.11487 828.8096,825.52457 821.6358,825.91587 z "
     id="path6779"
     inkscape:r_cx="true"
     inkscape:r_cy="true" />
  <path
     style="opacity:1;fill:#fff200;fill-opacity:1;stroke:#000000;stroke-width:7.93884659;stroke-miterlimit:4;stroke-dasharray:none;stroke-opacity:1"
     d="M 803.375,734.61517 C 786.1523,734.89167 772.9083,753.80897 778.6016,770.09187 C 783.1057,786.58717 804.6177,794.84017 818.9692,785.33167 C 834.4108,776.74887 836.6316,752.93257 823.0804,741.63257 C 817.7628,736.81417 810.5488,734.22384 803.375,734.61517 z "
     id="path6771"
     inkscape:r_cx="true"
     inkscape:r_cy="true" />
  <path
     sodipodi:type="arc"
     style="opacity:1;fill:#fff200;fill-opacity:1;stroke:#000000;stroke-width:7;stroke-miterlimit:4;stroke-dasharray:none;stroke-opacity:1"
     id="path7776"
     sodipodi:cx="1813.3398"
     sodipodi:cy="482.58347"
     sodipodi:rx="22.138441"
     sodipodi:ry="22.138441"
     d="M 1835.4783 482.58347 A 22.138441 22.138441 0 1 1  1791.2014,482.58347 A 22.138441 22.138441 0 1 1  1835.4783 482.58347 z"
     inkscape:r_cx="true"
     inkscape:r_cy="true"
     transform="matrix(1.089197,0,0,1.089197,-1371.148,40.87819)" />
  <path
     sodipodi:type="arc"
     style="opacity:1;fill:#fff200;fill-opacity:1;stroke:#000000;stroke-width:7;stroke-miterlimit:4;stroke-dasharray:none;stroke-opacity:1"
     id="path6789"
     sodipodi:cx="1813.3398"
     sodipodi:cy="482.58347"
     sodipodi:rx="22.138441"
     sodipodi:ry="22.138441"
     d="M 1835.4783 482.58347 A 22.138441 22.138441 0 1 1  1791.2014,482.58347 A 22.138441 22.138441 0 1 1  1835.4783 482.58347 z"
     inkscape:r_cx="true"
     inkscape:r_cy="true"
     transform="matrix(1.089197,0,0,1.089197,-1362.379,-24.88468)" />
  <path
     sodipodi:type="arc"
     style="opacity:1;fill:#fff200;fill-opacity:1;stroke:#000000;stroke-width:7;stroke-miterlimit:4;stroke-dasharray:none;stroke-opacity:1"
     id="path6793"
     sodipodi:cx="1813.3398"
     sodipodi:cy="482.58347"
     sodipodi:rx="22.138441"
     sodipodi:ry="22.138441"
     d="M 1835.4783 482.58347 A 22.138441 22.138441 0 1 1  1791.2014,482.58347 A 22.138441 22.138441 0 1 1  1835.4783 482.58347 z"
     inkscape:r_cx="true"
     inkscape:r_cy="true"
     transform="matrix(1.089197,0,0,1.089197,-1395.368,-66.5347)" />
  <path
     sodipodi:type="arc"
     style="opacity:1;fill:#fff200;fill-opacity:1;stroke:#000000;stroke-width:7;stroke-miterlimit:4;stroke-dasharray:none;stroke-opacity:1"
     id="path9534"
     sodipodi:cx="1813.3398"
     sodipodi:cy="482.58347"
     sodipodi:rx="22.138441"
     sodipodi:ry="22.138441"
     d="M 1835.4783 482.58347 A 22.138441 22.138441 0 1 1  1791.2014,482.58347 A 22.138441 22.138441 0 1 1  1835.4783 482.58347 z"
     inkscape:r_cx="true"
     inkscape:r_cy="true"
     transform="matrix(1.089197,0,0,1.089197,-1073.1,-142.3732)" />
  <path
     sodipodi:type="arc"
     style="opacity:1;fill:#fff200;fill-opacity:1;stroke:#000000;stroke-width:7;stroke-miterlimit:4;stroke-dasharray:none;stroke-opacity:1"
     id="path9536"
     sodipodi:cx="1813.3398"
     sodipodi:cy="482.58347"
     sodipodi:rx="22.138441"
     sodipodi:ry="22.138441"
     d="M 1835.4783 482.58347 A 22.138441 22.138441 0 1 1  1791.2014,482.58347 A 22.138441 22.138441 0 1 1  1835.4783 482.58347 z"
     inkscape:r_cx="true"
     inkscape:r_cy="true"
     transform="matrix(1.089197,0,0,1.089197,-1067.062,-283.2542)" />
  <path
     sodipodi:type="arc"
     style="opacity:1;fill:#fff200;fill-opacity:1;stroke:#000000;stroke-width:7;stroke-miterlimit:4;stroke-dasharray:none;stroke-opacity:1"
     id="path9538"
     sodipodi:cx="1813.3398"
     sodipodi:cy="482.58347"
     sodipodi:rx="22.138441"
     sodipodi:ry="22.138441"
     d="M 1835.4783 482.58347 A 22.138441 22.138441 0 1 1  1791.2014,482.58347 A 22.138441 22.138441 0 1 1  1835.4783 482.58347 z"
     inkscape:r_cx="true"
     inkscape:r_cy="true"
     transform="matrix(1.089197,0,0,1.089197,-1099.264,-172.5621)" />
  <path
     sodipodi:type="arc"
     style="opacity:1;fill:#fff200;fill-opacity:1;stroke:#000000;stroke-width:7;stroke-miterlimit:4;stroke-dasharray:none;stroke-opacity:1"
     id="path9540"
     sodipodi:cx="1813.3398"
     sodipodi:cy="482.58347"
     sodipodi:rx="22.138441"
     sodipodi:ry="22.138441"
     d="M 1835.4783 482.58347 A 22.138441 22.138441 0 1 1  1791.2014,482.58347 A 22.138441 22.138441 0 1 1  1835.4783 482.58347 z"
     inkscape:r_cx="true"
     inkscape:r_cy="true"
     transform="matrix(1.089197,0,0,1.089197,-1059.012,-214.8264)" />
  <rect
     style="opacity:1;fill:#000000;fill-opacity:1;stroke:none;stroke-width:7;stroke-miterlimit:4;stroke-dasharray:none;stroke-opacity:1"
     id="rect18294"
     width="36.289383"
     height="73.290321"
     x="853.86786"
     y="244.93314"
     inkscape:r_cx="true"
     inkscape:r_cy="true" />
  <path
     sodipodi:type="arc"
     style="opacity:1;fill:#fff200;fill-opacity:1;stroke:#000000;stroke-width:7;stroke-miterlimit:4;stroke-dasharray:none;stroke-opacity:1"
     id="path9542"
     sodipodi:cx="1813.3398"
     sodipodi:cy="482.58347"
     sodipodi:rx="22.138441"
     sodipodi:ry="22.138441"
     d="M 1835.4783 482.58347 A 22.138441 22.138441 0 1 1  1791.2014,482.58347 A 22.138441 22.138441 0 1 1  1835.4783 482.58347 z"
     inkscape:r_cx="true"
     inkscape:r_cy="true"
     transform="matrix(1.089197,0,0,1.089197,-1101.276,-283.2543)" />
  <path
     sodipodi:type="arc"
     style="opacity:1;fill:#fff200;fill-opacity:1;stroke:#000000;stroke-width:7;stroke-miterlimit:4;stroke-dasharray:none;stroke-opacity:1"
     id="path9544"
     sodipodi:cx="1813.3398"
     sodipodi:cy="482.58347"
     sodipodi:rx="22.138441"
     sodipodi:ry="22.138441"
     d="M 1835.4783 482.58347 A 22.138441 22.138441 0 1 1  1791.2014,482.58347 A 22.138441 22.138441 0 1 1  1835.4783 482.58347 z"
     inkscape:r_cx="true"
     inkscape:r_cy="true"
     transform="matrix(1.089197,0,0,1.089197,-1167.692,-323.506)" />
  <path
     sodipodi:type="arc"
     style="opacity:1;fill:#fff200;fill-opacity:1;stroke:#000000;stroke-width:7;stroke-miterlimit:4;stroke-dasharray:none;stroke-opacity:1"
     id="path9546"
     sodipodi:cx="1813.3398"
     sodipodi:cy="482.58347"
     sodipodi:rx="22.138441"
     sodipodi:ry="22.138441"
     d="M 1835.4783 482.58347 A 22.138441 22.138441 0 1 1  1791.2014,482.58347 A 22.138441 22.138441 0 1 1  1835.4783 482.58347 z"
     inkscape:r_cx="true"
     inkscape:r_cy="true"
     transform="matrix(1.089197,0,0,1.089197,-1129.453,-204.7635)" />
  <path
     sodipodi:type="arc"
     style="opacity:1;fill:#fff200;fill-opacity:1;stroke:#000000;stroke-width:7;stroke-miterlimit:4;stroke-dasharray:none;stroke-opacity:1"
     id="path9548"
     sodipodi:cx="1813.3398"
     sodipodi:cy="482.58347"
     sodipodi:rx="22.138441"
     sodipodi:ry="22.138441"
     d="M 1835.4783 482.58347 A 22.138441 22.138441 0 1 1  1791.2014,482.58347 A 22.138441 22.138441 0 1 1  1835.4783 482.58347 z"
     inkscape:r_cx="true"
     inkscape:r_cy="true"
     transform="matrix(1.089197,0,0,1.089197,-1061.025,-176.5873)" />
  <path
     sodipodi:type="arc"
     style="opacity:1;fill:#fff200;fill-opacity:1;stroke:#000000;stroke-width:7;stroke-miterlimit:4;stroke-dasharray:none;stroke-opacity:1"
     id="path9550"
     sodipodi:cx="1813.3398"
     sodipodi:cy="482.58347"
     sodipodi:rx="22.138441"
     sodipodi:ry="22.138441"
     d="M 1835.4783 482.58347 A 22.138441 22.138441 0 1 1  1791.2014,482.58347 A 22.138441 22.138441 0 1 1  1835.4783 482.58347 z"
     inkscape:r_cx="true"
     inkscape:r_cy="true"
     transform="matrix(1.089197,0,0,1.089197,-1099.264,-216.839)" />
  <path
     sodipodi:type="arc"
     style="opacity:1;fill:#fff200;fill-opacity:1;stroke:#000000;stroke-width:7;stroke-miterlimit:4;stroke-dasharray:none;stroke-opacity:1"
     id="path9532"
     sodipodi:cx="1813.3398"
     sodipodi:cy="482.58347"
     sodipodi:rx="22.138441"
     sodipodi:ry="22.138441"
     d="M 1835.4783 482.58347 A 22.138441 22.138441 0 1 1  1791.2014,482.58347 A 22.138441 22.138441 0 1 1  1835.4783 482.58347 z"
     inkscape:r_cx="true"
     inkscape:r_cy="true"
     transform="matrix(1.089197,0,0,1.089197,-1075.113,-249.0403)" />
  <path
     sodipodi:type="arc"
     style="opacity:1;fill:#fff200;fill-opacity:1;stroke:#000000;stroke-width:7;stroke-miterlimit:4;stroke-dasharray:none;stroke-opacity:1"
     id="path9552"
     sodipodi:cx="1813.3398"
     sodipodi:cy="482.58347"
     sodipodi:rx="22.138441"
     sodipodi:ry="22.138441"
     d="M 1835.4783 482.58347 A 22.138441 22.138441 0 1 1  1791.2014,482.58347 A 22.138441 22.138441 0 1 1  1835.4783 482.58347 z"
     inkscape:r_cx="true"
     inkscape:r_cy="true"
     transform="matrix(1.089197,0,0,1.089197,-1155.616,-245.0152)" />
  <path
     sodipodi:type="arc"
     style="opacity:1;fill:#fff200;fill-opacity:1;stroke:#000000;stroke-width:7;stroke-miterlimit:4;stroke-dasharray:none;stroke-opacity:1"
     id="path9554"
     sodipodi:cx="1813.3398"
     sodipodi:cy="482.58347"
     sodipodi:rx="22.138441"
     sodipodi:ry="22.138441"
     d="M 1835.4783 482.58347 A 22.138441 22.138441 0 1 1  1791.2014,482.58347 A 22.138441 22.138441 0 1 1  1835.4783 482.58347 z"
     inkscape:r_cx="true"
     inkscape:r_cy="true"
     transform="matrix(1.089197,0,0,1.089197,-1131.465,-247.0278)" />
  <path
     sodipodi:type="arc"
     style="opacity:1;fill:#fff200;fill-opacity:1;stroke:#000000;stroke-width:7;stroke-miterlimit:4;stroke-dasharray:none;stroke-opacity:1"
     id="path9558"
     sodipodi:cx="1813.3398"
     sodipodi:cy="482.58347"
     sodipodi:rx="22.138441"
     sodipodi:ry="22.138441"
     d="M 1835.4783 482.58347 A 22.138441 22.138441 0 1 1  1791.2014,482.58347 A 22.138441 22.138441 0 1 1  1835.4783 482.58347 z"
     inkscape:r_cx="true"
     inkscape:r_cy="true"
     transform="matrix(1.089197,0,0,1.089197,-1189.83,-279.2291)" />
  <path
     sodipodi:type="arc"
     style="opacity:1;fill:#fff200;fill-opacity:1;stroke:#000000;stroke-width:7;stroke-miterlimit:4;stroke-dasharray:none;stroke-opacity:1"
     id="path9560"
     sodipodi:cx="1813.3398"
     sodipodi:cy="482.58347"
     sodipodi:rx="22.138441"
     sodipodi:ry="22.138441"
     d="M 1835.4783 482.58347 A 22.138441 22.138441 0 1 1  1791.2014,482.58347 A 22.138441 22.138441 0 1 1  1835.4783 482.58347 z"
     inkscape:r_cx="true"
     inkscape:r_cy="true"
     transform="matrix(1.089197,0,0,1.089197,-1149.578,-281.2417)" />
  <path
     sodipodi:type="arc"
     style="opacity:1;fill:#fff200;fill-opacity:1;stroke:#000000;stroke-width:7;stroke-miterlimit:4;stroke-dasharray:none;stroke-opacity:1"
     id="path9556"
     sodipodi:cx="1813.3398"
     sodipodi:cy="482.58347"
     sodipodi:rx="22.138441"
     sodipodi:ry="22.138441"
     d="M 1835.4783 482.58347 A 22.138441 22.138441 0 1 1  1791.2014,482.58347 A 22.138441 22.138441 0 1 1  1835.4783 482.58347 z"
     inkscape:r_cx="true"
     inkscape:r_cy="true"
     transform="matrix(1.089197,0,0,1.089197,-1127.44,-319.4808)" />
  <path
     sodipodi:type="arc"
     style="opacity:1;fill:#fff200;fill-opacity:1;stroke:#000000;stroke-width:7;stroke-miterlimit:4;stroke-dasharray:none;stroke-opacity:1"
     id="path9562"
     sodipodi:cx="1813.3398"
     sodipodi:cy="482.58347"
     sodipodi:rx="22.138441"
     sodipodi:ry="22.138441"
     d="M 1835.4783 482.58347 A 22.138441 22.138441 0 1 1  1791.2014,482.58347 A 22.138441 22.138441 0 1 1  1835.4783 482.58347 z"
     inkscape:r_cx="true"
     inkscape:r_cy="true"
     transform="matrix(1.089197,0,0,1.089197,-1085.176,-323.506)" />
  <path
     id="path24896"
     style="fill:none;fill-opacity:1;stroke:#000000;stroke-width:18.58500099;stroke-linecap:round;stroke-linejoin:miter;stroke-miterlimit:4;stroke-dasharray:none;stroke-dashoffset:0;stroke-opacity:1"
     d="M 9.2954783,625.43148 C 9.2887783,626.41049 9.2954783,627.40665 9.2954783,628.38713 M 990.70448,9.2895013 L 9.2954783,9.2895013 L 9.2954783,628.38713 C 9.2954783,879.3911 229.13108,1083.1045 499.99998,1083.1045 C 770.86888,1083.1045 990.70438,879.39108 990.70448,628.38713 C 990.70448,627.40665 990.71128,626.41049 990.70448,625.43148 L 990.70448,9.2895013 z "
     sodipodi:nodetypes="cscccsscc" />
  <path
     style="fill:none;fill-rule:evenodd;stroke:#000000;stroke-width:11.53100014;stroke-linecap:butt;stroke-linejoin:miter;stroke-miterlimit:4;stroke-dasharray:none;stroke-opacity:1"
     d="M 499.9995,13.8095 L 499.9995,1080.8859"
     id="path4121"
     sodipodi:nodetypes="cc" />
</svg>
