<?xml version="1.0" encoding="utf-8"?>
<!-- Generator: Adobe Illustrator 26.2.1, SVG Export Plug-In . SVG Version: 6.00 Build 0)  -->
<svg version="1.1" id="Layer_1" xmlns="http://www.w3.org/2000/svg" xmlns:xlink="http://www.w3.org/1999/xlink" x="0px" y="0px"
	 viewBox="0 0 30 30" style="enable-background:new 0 0 30 30;" xml:space="preserve">
<style type="text/css">
	.st0{fill:#0054A6;}
</style>
<path class="st0" d="M18.2,13.2h4.7l-5.4,13.5c2.2-0.5,4.2-1.6,5.7-3.2c2.2-2.2,3.5-5.2,3.5-8.5h0v0h0c0-3.3-1.3-6.3-3.5-8.5
	C21.1,4.4,18.2,3,15,3v0h0v0c-3.2,0-6.1,1.3-8.2,3.5C4.6,8.7,3.3,11.7,3.3,15h0v0h0c0,1.7,0.3,3.3,1,4.8c0.2,0.5,0.4,0.9,0.7,1.4v0
	c0.2,0.3,0.4,0.6,0.5,0.8L9,13.2l6.8,0L9.6,29c-0.2-0.1-0.3-0.1-0.5-0.2c-3-1.3-5.5-3.5-7.1-6.2c-0.3-0.5-0.6-1.1-0.9-1.7
	C0.4,19.1,0,17.1,0,15h0v0h0c0-4.1,1.7-7.8,4.3-10.6C7.1,1.7,10.8,0,15,0v0h0v0c4.2,0,7.9,1.7,10.7,4.4C28.3,7.2,30,10.9,30,15h0v0
	h0c0,4.1-1.7,7.8-4.3,10.6c-2.6,2.7-6.3,4.4-10.3,4.4c-1.3,0-2.5-0.1-3.6-0.5L18.2,13.2"/>
</svg>
