{
  "components": {
    "ca": {
      "name": "Client A",
      "x": 0
    },
    "l": {
      "name": "Leader",
      "x": 25
    },
    "fa": {
      "name": "Follower A",
      "x": 50
    },
    "fb": {
      "name": "Follower B",
      "x": 75
    },
    "cb": {
      "name": "Client B",
      "x": 100
    }
  },
  "state": {},
  "timelines": {
    "$t_1$": 0,
    "$t_2$": 130
  },
  "steps": [
    {
      "name": "Write Data",
      "description": "Writes go through the leader",
      "from": "ca",
      "to": "l",
      "message": "set $x = 5$",
      "sendAt": 0,
      "receiveAt": 20,
      "state": {
        "l": {
          "x": "5"
        }
      }
    },
    {
      "name": "Broadcast Changes to Followers",
      "description": "Changes are streamed and applied to the state of to the followers",
      "from": "l",
      "to": "fb",
      "message": "set $x = 5$",
      "messagePosition": 0.7,
      "sendAt": 30,
      "receiveAt": 40,
      "state": {
        "l": {
          "x": "5"
        },
        "fb": {
          "x": "5"
        }
      }
    },
    {
      "name": "Broadcast Changes to Followers",
      "description": "Changes are streamed and applied to the state of to the followers",
      "from": "l",
      "to": "fa",
      "message": "set $x = 5$",
      "sendAt": 30,
      "receiveAt": 50,
      "state": {
        "l": {
          "x": "5"
        },
        "fa": {
          "x": "5"
        },
        "fb": {
          "x": "5"
        }
      }
    },
    {
      "name": "Acknowledgment of Changes",
      "description": "Followers acknowledge the changes",
      "from": "fa",
      "to": "l",
      "message": "ack",
      "sendAt": 60,
      "receiveAt": 80,
      "state": {
        "l": {
          "x": "5"
        },
        "fa": {
          "x": "5"
        },
        "fb": {
          "x": "5"
        }
      }
    },
    {
      "name": "Acknowledgment of Changes",
      "description": "Followers acknowledge the changes",
      "from": "fb",
      "to": "l",
      "message": "ack",
      "sendAt": 60,
      "receiveAt": 100,
      "state": {
        "l": {
          "x": "5"
        },
        "fa": {
          "x": "5"
        },
        "fb": {
          "x": "5"
        }
      }
    },
    {
      "name": "Acknowledgment of Write",
      "description": "Leader acknowledges the write",
      "from": "l",
      "to": "ca",
      "message": "ack",
      "sendAt": 110,
      "receiveAt": 130,
      "state": {
        "l": {
          "x": "5"
        },
        "fa": {
          "x": "5"
        },
        "fb": {
          "x": "5"
        }
      }
    },
    {
      "name": "Read Data",
      "description": "Reads can be issued from a follower",
      "from": "cb",
      "to": "fb",
      "message": "get $x$",
      "messagePosition": 0.5,
      "sendAt": 140,
      "receiveAt": 160,
      "state": {
        "l": {
          "x": "5"
        },
        "fa": {
          "x": "5"
        },
        "fb": {
          "x": "5"
        }
      }
    },
    {
      "name": "Get Data",
      "description": "Data is sent to client",
      "from": "fb",
      "to": "cb",
      "message": "$x = 5$",
      "sendAt": 180,
      "receiveAt": 200,
      "state": {
        "l": {
          "x": "5"
        },
        "fa": {
          "x": "5"
        },
        "fb": {
          "x": "5"
        }
      }
    }
  ]
}
